{
  "$schema": "http://json-schema.org/draft-04/schema#",
  "definitions": {},
  "items": {
    "id": "/users",
    "properties": {
      "id": {
        "description": "unique user id",
        "id": "/users/properties/id",
        "title": "user id",
        "type": "integer"
      },
      "name": {
        "id": "/users/properties/name",
        "title": "user name",
        "type": "string"
      },
      "username": {
        "id": "/users/properties/username",
        "title": "user nickname",
        "type": "string"
      },
      "email": {
        "id": "/users/properties/email",
        "title": "user email",
        "type": "string"
      },
      "address": {
        "id": "/users/properties/address",
        "properties": {
          "street": {
            "id": "/users/properties/address/properties/street",
            "title": "user street",
            "type": "string"
          },
          "suite": {
            "id": "/users/properties/address/properties/suite",
            "title": "user suite",
            "type": "string"
          },
          "city": {
            "id": "/users/properties/address/properties/city",
            "title": "user city",
            "type": "string"
          },
          "zipcode": {
            "id": "/users/properties/address/properties/zipcode",
            "title": "user zip code",
            "type": "string"
          },
          "geo": {
            "id": "/users/properties/address/properties/geo",
            "properties": {
              "lat": {
                "id": "/users/properties/address/properties/geo/properties/lat",
                "title": "The lat schema.",
                "type": "string"
              },
              "lng": {
                "id": "/users/properties/address/properties/geo/properties/lng",
                "title": "The lng schema.",
                "type": "string"
              }
            },
            "type": "object"
          }
        },
        "type": "object"
      },
      "phone": {
        "id": "/users/properties/phone",
        "title": "user phone",
        "type": "string"
      },
      "website": {
        "id": "/users/properties/website",
        "title": "user personal site url",
        "type": "string"
      },
      "company": {
        "id": "/users/properties/company",
        "properties": {
          "name": {
            "id": "/users/properties/company/properties/name",
            "title": "company name",
            "type": "string"
          },
          "catchPhrase": {
            "id": "/users/properties/company/properties/catchPhrase",
            "title": "company slogan",
            "type": "string"
          },
          "bs": {
            "id": "/users/properties/company/properties/bs",
            "title": "company activity",
            "type": "string"
          }
        },
        "type": "object"
      }
    },
    "type": "object"
  },
  "type": "array"
}